<svg id="Info" xmlns="http://www.w3.org/2000/svg" width="24" height="24" viewBox="0 0 24 24">
  <defs>
    <style>
      .cls-1 {
        fill: none;
      }

      .cls-2 {
        fill: rgba(102,102,102,0.5);
      }
    </style>
  </defs>
  <rect id="Rectangle_11" data-name="Rectangle 11" class="cls-1" width="24" height="24"/>
  <g id="Fill_5" data-name="Fill 5" transform="translate(7 7)">
    <path id="Fill_1" data-name="Fill 1" class="cls-2" d="M5,10a5,5,0,1,1,5-5A5.006,5.006,0,0,1,5,10ZM3.7,3.889a.83.83,0,0,0-.182.014.2.2,0,0,0-.183.18.205.205,0,0,0,.144.223,2,2,0,0,0,.256.052l.017,0c.208.028.275.109.275.333a.28.28,0,0,1-.007.049.28.28,0,0,0-.007.049c-.078.539-.168,1.076-.261,1.625-.02.165-.044.329-.067.487s-.044.3-.063.458a.913.913,0,0,0,.679.945,4.459,4.459,0,0,0,.6.027,1.447,1.447,0,0,0,1.084-.514A.484.484,0,0,0,6.1,7.611a.16.16,0,0,0-.019-.142.13.13,0,0,0-.105-.049.18.18,0,0,0-.06.011.651.651,0,0,0-.117.063.651.651,0,0,1-.118.063,1.119,1.119,0,0,1-.3.1l-.032,0a.21.21,0,0,1-.217-.183.821.821,0,0,1-.026-.305A5.322,5.322,0,0,1,5.2,6.556c.07-.421.14-.836.21-1.253l.008-.046.095-.562,0-.019a3.266,3.266,0,0,0,.048-.481.282.282,0,0,0-.312-.305H3.7ZM5.285,1.667a.833.833,0,1,0,0,1.667A.831.831,0,0,0,6.111,2.5.821.821,0,0,0,5.285,1.667Z"/>
  </g>
</svg>
