<svg xmlns="http://www.w3.org/2000/svg" id="Less_Time" width="36" height="36" viewBox="0 0 36 36">
    <defs>
        <style>
            .cls-2,.cls-3{fill:none;stroke:#f2a354;stroke-linecap:round;stroke-miterlimit:10;stroke-width:1.5px}.cls-2{stroke-linejoin:round}
        </style>
    </defs>
    <path id="Rectangle_7" fill="none" d="M0 0H36V36H0z"/>
    <g id="Group_11" transform="translate(8.031 6.061)">
        <g id="Group_10" transform="translate(2.493)">
            <path id="Path_6" d="M128.319 40.974v3.1a7.076 7.076 0 0 0 2.152 5.046l4.242 4.1-4.055 3.816a7.038 7.038 0 0 0-2.206 5.122v2.69" class="cls-2" transform="translate(-128.319 -40.974)"/>
            <path id="Path_7" d="M291.707 64.853v-2.641a7.045 7.045 0 0 0-2.289-5.185l-4.17-3.81 4.242-4.1a7.075 7.075 0 0 0 2.151-5.046v-3.1" class="cls-2" transform="translate(-276.915 -40.974)"/>
        </g>
        <path id="Line_5" d="M0 0L19.938 0" class="cls-3" transform="translate(0 23.879)"/>
        <path id="Line_6" d="M0 0L19.938 0" class="cls-3"/>
    </g>
</svg>
